…
print(transit_df_tidy)
```

    ## # A tibble: 20,548 x 10
    ##    line  station_name station_latitude station_longitu… entrance_type entry
    ##    <chr> <chr>                   <dbl>            <dbl> <chr>         <lgl>
    ##  1 4 Av… 25th St                  40.7            -74.0 Stair         TRUE 
    ##  2 4 Av… 25th St                  40.7            -74.0 Stair         TRUE 
    ##  3 4 Av… 25th St                  40.7            -74.0 Stair         TRUE 
    ##  4 4 Av… 25th St                  40.7            -74.0 Stair         TRUE 
    ##  5 4 Av… 25th St                  40.7            -74.0 Stair         TRUE 
    ##  6 4 Av… 25th St                  40.7            -74.0 Stair         TRUE 
    ##  7 4 Av… 25th St                  40.7            -74.0 Stair         TRUE 
    ##  8 4 Av… 25th St                  40.7            -74.0 Stair         TRUE 
    ##  9 4 Av… 25th St                  40.7            -74.0 Stair         TRUE 
    ## 10 4 Av… 25th St                  40.7            -74.0 Stair         TRUE 
    ## # … with 20,538 more rows, and 4 more variables: vending <chr>, ada <lgl>,
    ## #   route_number <chr>, route_name <chr>
…
